\relax 
\providecommand\hyper@newdestlabel[2]{}
\catcode `:\active 
\catcode `;\active 
\catcode `!\active 
\catcode `?\active 
\providecommand\HyperFirstAtBeginDocument{\AtBeginDocument}
\HyperFirstAtBeginDocument{\ifx\hyper@anchor\@undefined
\global\let\oldcontentsline\contentsline
\gdef\contentsline#1#2#3#4{\oldcontentsline{#1}{#2}{#3}}
\global\let\oldnewlabel\newlabel
\gdef\newlabel#1#2{\newlabelxx{#1}#2}
\gdef\newlabelxx#1#2#3#4#5#6{\oldnewlabel{#1}{{#2}{#3}}}
\AtEndDocument{\ifx\hyper@anchor\@undefined
\let\contentsline\oldcontentsline
\let\newlabel\oldnewlabel
\fi}
\fi}
\global\let\hyper@last\relax 
\gdef\HyperFirstAtBeginDocument#1{#1}
\providecommand\HyField@AuxAddToFields[1]{}
\providecommand\HyField@AuxAddToCoFields[2]{}
\select@language{french}
\@writefile{toc}{\select@language{french}}
\@writefile{lof}{\select@language{french}}
\@writefile{lot}{\select@language{french}}
\@writefile{toc}{\contentsline {section}{Introduction}{3}{section*.2}}
\@writefile{toc}{\contentsline {section}{\numberline {1}Concept et fonctionnement}{4}{section.1}}
\@writefile{toc}{\contentsline {subsection}{\numberline {1.1}Concept et d\IeC {\'e}finition}{4}{subsection.1.1}}
\@writefile{toc}{\contentsline {subsection}{\numberline {1.2}fonctionnement des principaux algorithmes}{4}{subsection.1.2}}
\@writefile{toc}{\contentsline {section}{\numberline {2}Int\IeC {\'e}r\IeC {\^e}t et applications}{6}{section.2}}
\@writefile{toc}{\contentsline {subsection}{\numberline {2.1}Int\IeC {\'e}r\IeC {\^e}t}{6}{subsection.2.1}}
\@writefile{toc}{\contentsline {subsection}{\numberline {2.2}Traduction}{6}{subsection.2.2}}
\@writefile{toc}{\contentsline {subsection}{\numberline {2.3}Reconnaissance vocale}{6}{subsection.2.3}}
\@writefile{toc}{\contentsline {subsection}{\numberline {2.4}R\IeC {\'e}ponse automatique}{6}{subsection.2.4}}
\@writefile{toc}{\contentsline {section}{\numberline {3}Word embeddings et d\IeC {\'e}rive s\IeC {\'e}mantique}{8}{section.3}}
\@writefile{toc}{\contentsline {subsection}{\numberline {3.1}M\IeC {\'e}thode}{8}{subsection.3.1}}
\@writefile{toc}{\contentsline {subsection}{\numberline {3.2}Principaux r\IeC {\'e}sultats}{8}{subsection.3.2}}
\@writefile{lof}{\contentsline {figure}{\numberline {1}{\ignorespaces exemple de d\IeC {\'e}rive s\IeC {\'e}mantique de 3 mots\relax }}{8}{figure.1}}
\@writefile{toc}{\contentsline {section}{Conclusion}{9}{section*.3}}
\@writefile{toc}{\contentsline {section}{R\IeC {\'e}f\IeC {\'e}rences}{10}{section*.4}}
\newlabel{LastPage}{{}{10}{}{page.10}{}}
\xdef\lastpage@lastpage{10}
\xdef\lastpage@lastpageHy{10}
